…
### dplyr downstream

You can pass the data object directly on to `dplyr` functions. Here, we get a table of record counts by species in descending order.


```r
library("dplyr")
out <- searchbyterm(genus = "Ochotona", limit = 800)
out$data %>%
  group_by(scientificname) %>%
  summarise(count = length(scientificname)) %>%
  arrange(desc(count))
#> # A tibble: 25 × 2
#>                   scientificname count
#>                            <chr> <int>
#> 1              Ochotona princeps   287
#> 2    Ochotona princeps saxatilis   169
#> 3               Ochotona pallasi   114
#> 4        Ochotona princeps muiri   107
#> 5            Ochotona hyperborea    30
#> 6     Ochotona princeps figginsi    18
#> 7              Ochotona dauurica    14
#> 8     Ochotona princeps princeps     9
#> 9  Ochotona princeps brunnescens     8
#> 10      Ochotona princeps cuppes     8
#> # ... with 15 more rows
```
…
