…
Limit the number of records returned (under 1000)


```r
res <- vertsearch("(kansas state OR KSU)", limit = 200)
res$data
#> # A tibble: 200 x 78
#>    individualcount georeferenceprot… recordedby  bibliographiccitation    
#>    <chr>           <chr>             <chr>       <chr>                    
#>  1 8               GEOLocate (Rios … H. W. Robi… Academy of Natural Scien…
#>  2 11              GEOLocate (Rios … H. W. Robi… Academy of Natural Scien…
#>  3 3               GEOLocate (Rios … H. W. Robi… Academy of Natural Scien…
#>  4 <NA>            <NA>              <NA>        California Academy of Sc…
#>  5 <NA>            <NA>              <NA>        California Academy of Sc…
#>  6 <NA>            <NA>              <NA>        California Academy of Sc…
#>  7 1               VertNet Georefer… MCCOY, C J… Carnegie Museum of Natur…
#>  8 1               VertNet Georefer… MCCOY, C J… Carnegie Museum of Natur…
#>  9 1               VertNet Georefer… MCCOY, C J… Carnegie Museum of Natur…
#> 10 1               VertNet Georefer… MCCOY, C J… Carnegie Museum of Natur…
#> # ... with 190 more rows, and 74 more variables: stateprovince <chr>,
#> #   basisofrecord <chr>, month <chr>, decimallongitude <chr>,
#> #   phylum <chr>, references <chr>, georeferencedby <chr>, year <chr>,
#> #   taxonrank <chr>, specificepithet <chr>, family <chr>,
#> #   countrycode <chr>, locality <chr>, geodeticdatum <chr>,
#> #   coordinateuncertaintyinmeters <chr>, highergeography <chr>,
#> #   continent <chr>, day <chr>, kingdom <chr>, georeferenceddate <chr>,
#> #   footprintwkt <chr>, institutioncode <chr>, scientificname <chr>,
#> #   preparations <chr>, disposition <chr>, class <chr>,
…
